graph matches_graph{
"1" -- "4"[label="Nm=68, Ni=41, C=1.44366"];
"1" -- "5"[label="Nm=39, Ni=22, C=1.11675"];
"2" -- "5"[label="Nm=148, Ni=70, C=1.33588"];
"2" -- "6"[label="Nm=172, Ni=87, C=1.45973"];
"3" -- "4"[label="Nm=32, Ni=19, C=1.07955"];
}